# 3ds Max Wavefront OBJ Exporter v0.97b - (c)2007 guruware
# File Created: 21.04.2020 23:23:07

#
# object Pyramid001
#

v  0.00000000 50.00000000 -0.00000000
v  -8.33333397 33.33333206 8.33333397
v  -2.77777767 33.33333206 8.33333397
v  2.77777863 33.33333206 8.33333397
v  8.33333492 33.33333206 8.33333397
v  8.33333492 33.33333206 2.77777767
v  8.33333492 33.33333206 -2.77777863
v  8.33333492 33.33333206 -8.33333492
v  2.77777863 33.33333206 -8.33333492
v  -2.77777767 33.33333206 -8.33333492
v  -8.33333397 33.33333206 -8.33333492
v  -8.33333397 33.33333206 -2.77777863
v  -8.33333397 33.33333206 2.77777767
v  -16.66666794 16.66666412 16.66666794
v  -5.55555534 16.66666412 16.66666794
v  5.55555725 16.66666412 16.66666794
v  16.66666985 16.66666412 16.66666794
v  16.66666985 16.66666412 5.55555534
v  16.66666985 16.66666412 -5.55555725
v  16.66666985 16.66666412 -16.66666985
v  5.55555725 16.66666412 -16.66666985
v  -5.55555534 16.66666412 -16.66666985
v  -16.66666794 16.66666412 -16.66666985
v  -16.66666794 16.66666412 -5.55555725
v  -16.66666794 16.66666412 5.55555534
v  -25.00000191 -0.00000381 25.00000191
v  -8.33333397 -0.00000381 25.00000191
v  8.33333397 -0.00000381 25.00000191
v  25.00000191 -0.00000381 25.00000191
v  25.00000191 -0.00000381 8.33333397
v  25.00000191 -0.00000381 -8.33333397
v  25.00000191 -0.00000381 -25.00000191
v  8.33333397 -0.00000381 -25.00000191
v  -8.33333397 -0.00000381 -25.00000191
v  -25.00000191 -0.00000381 -25.00000191
v  -25.00000191 -0.00000381 -8.33333397
v  -25.00000191 -0.00000381 8.33333397
v  0.00000000 0.00000000 -0.00000000
# 38 vertices

vn 0.00000000 0.44721359 0.89442718
vn 0.89442718 0.44721365 -0.00000000
vn 0.89442718 0.44721362 -0.00000000
vn 0.00000000 0.44721362 -0.89442718
vn 0.00000000 0.44721365 -0.89442718
vn -0.89442718 0.44721359 -0.00000000
vn 0.89442724 0.44721353 -0.00000000
vn 0.89442718 0.44721356 -0.00000000
vn 0.89442718 0.44721359 -0.00000000
vn 0.00000000 0.44721356 -0.89442718
vn 0.89442724 0.44721350 -0.00000000
vn 0.89442724 0.44721347 -0.00000000
vn 0.00000000 0.44721350 -0.89442724
vn 0.00000000 0.44721353 -0.89442724
vn 0.00000008 -1.00000000 -0.00000008
vn -0.00000000 -1.00000000 -0.00000000
vn 0.00000000 -1.00000000 -0.00000015
vn -0.00000008 -1.00000000 -0.00000008
vn -0.00000015 -1.00000000 -0.00000000
vn -0.00000008 -1.00000000 0.00000008
vn 0.00000000 -1.00000000 0.00000015
vn 0.00000008 -1.00000000 0.00000008
vn 0.00000015 -1.00000000 -0.00000000
# 23 vertex normals

vt 0.50000000 1.00000000 0.00000000
vt 0.33333325 0.66666663 0.00000000
vt 0.44444442 0.66666663 0.00000000
vt 0.55555558 0.66666663 0.00000000
vt 0.66666675 0.66666663 0.00000000
vt 0.16666663 0.33333328 0.00000000
vt 0.38888890 0.33333328 0.00000000
vt 0.61111116 0.33333328 0.00000000
vt 0.83333337 0.33333328 0.00000000
vt 0.00000000 -0.00000008 0.00000000
vt 0.33333325 -0.00000008 0.00000000
vt 0.66666669 -0.00000008 0.00000000
vt 1.00000000 -0.00000008 0.00000000
vt 0.00000000 1.00000000 0.00000000
vt 0.50000000 0.50000000 0.00000000
vt 0.33333325 1.00000000 0.00000000
vt 0.66666669 1.00000000 0.00000000
vt 1.00000000 1.00000000 0.00000000
vt 1.00000000 0.66666675 0.00000000
vt 1.00000000 0.33333331 0.00000000
vt 1.00000000 -0.00000004 0.00000000
vt 0.66666669 -0.00000004 0.00000000
vt 0.33333325 -0.00000004 0.00000000
vt 0.00000000 -0.00000004 0.00000000
vt 0.00000000 0.33333331 0.00000000
vt 0.00000000 0.66666675 0.00000000
# 26 texture coords

g Pyramid001
s 4
f 1/1/1 2/2/1 3/3/1 
f 1/1/1 3/3/1 4/4/1 
f 1/1/1 4/4/1 5/5/1 
s 2
f 1/1/2 5/2/2 6/3/3 
f 1/1/2 6/3/3 7/4/3 
f 1/1/2 7/4/3 8/5/2 
s 16
f 1/1/4 8/2/5 9/3/4 
f 1/1/4 9/3/4 10/4/5 
f 1/1/4 10/4/5 11/5/5 
s 32
f 1/1/6 11/2/6 12/3/6 
f 1/1/6 12/3/6 13/4/6 
f 1/1/6 13/4/6 2/5/6 
s 4
f 2/2/1 14/6/1 15/7/1 
f 2/2/1 15/7/1 3/3/1 
f 3/3/1 15/7/1 16/8/1 
f 3/3/1 16/8/1 4/4/1 
f 4/4/1 16/8/1 17/9/1 
f 4/4/1 17/9/1 5/5/1 
s 2
f 5/2/2 17/6/7 18/7/8 
f 5/2/2 18/7/8 6/3/3 
f 6/3/3 18/7/8 19/8/9 
f 6/3/3 19/8/9 7/4/3 
f 7/4/3 19/8/9 20/9/9 
f 7/4/3 20/9/9 8/5/2 
s 16
f 8/2/5 20/6/10 21/7/10 
f 8/2/5 21/7/10 9/3/4 
f 9/3/4 21/7/10 22/8/10 
f 9/3/4 22/8/10 10/4/5 
f 10/4/5 22/8/10 23/9/10 
f 10/4/5 23/9/10 11/5/5 
s 32
f 11/2/6 23/6/6 24/7/6 
f 11/2/6 24/7/6 12/3/6 
f 12/3/6 24/7/6 25/8/6 
f 12/3/6 25/8/6 13/4/6 
f 13/4/6 25/8/6 14/9/6 
f 13/4/6 14/9/6 2/5/6 
s 4
f 14/6/1 26/10/1 27/11/1 
f 14/6/1 27/11/1 15/7/1 
f 15/7/1 27/11/1 28/12/1 
f 15/7/1 28/12/1 16/8/1 
f 16/8/1 28/12/1 29/13/1 
f 16/8/1 29/13/1 17/9/1 
s 2
f 17/6/7 29/10/11 30/11/7 
f 17/6/7 30/11/7 18/7/8 
f 18/7/8 30/11/7 31/12/12 
f 18/7/8 31/12/12 19/8/9 
f 19/8/9 31/12/12 32/13/11 
f 19/8/9 32/13/11 20/9/9 
s 16
f 20/6/10 32/10/13 33/11/14 
f 20/6/10 33/11/14 21/7/10 
f 21/7/10 33/11/14 34/12/14 
f 21/7/10 34/12/14 22/8/10 
f 22/8/10 34/12/14 35/13/13 
f 22/8/10 35/13/13 23/9/10 
s 32
f 23/6/6 35/10/6 36/11/6 
f 23/6/6 36/11/6 24/7/6 
f 24/7/6 36/11/6 37/12/6 
f 24/7/6 37/12/6 25/8/6 
f 25/8/6 37/12/6 26/13/6 
f 25/8/6 26/13/6 14/9/6 
s 8
f 26/14/15 38/15/16 27/16/17 
f 27/16/17 38/15/16 28/17/17 
f 28/17/17 38/15/16 29/18/18 
f 29/18/18 38/15/16 30/19/19 
f 30/19/19 38/15/16 31/20/19 
f 31/20/19 38/15/16 32/21/20 
f 32/21/20 38/15/16 33/22/21 
f 33/22/21 38/15/16 34/23/21 
f 34/23/21 38/15/16 35/24/22 
f 35/24/22 38/15/16 36/25/23 
f 36/25/23 38/15/16 37/26/23 
f 37/26/23 38/15/16 26/14/15 
# 72 faces

