# Wavefront Object Material File
# Generated using SpeedTree tools

newmtl BroadleafBark_Mat
map_Kd Broadleaf_Ver1.png
map_d Broadleaf_Ver1_Opacity.png
map_bump Broadleaf_Ver1_Normal.png
bump Broadleaf_Ver1_Normal.png -bm 1
Ns 128
illum 2


newmtl Broadleaves_Card_Desktop_Mat
map_Kd Broadleaf_Ver1.png
map_d Broadleaf_Ver1_Opacity.png
map_bump Broadleaf_Ver1_Normal.png
bump Broadleaf_Ver1_Normal.png -bm 1
Ns 128
illum 2


newmtl Cap_01_Mat
map_Kd Broadleaf_Ver1.png
map_d Broadleaf_Ver1_Opacity.png
map_bump Broadleaf_Ver1_Normal.png
bump Broadleaf_Ver1_Normal.png -bm 1
Ns 128
illum 2


