# Wavefront Object File
# Generated using SpeedTree tools

mtllib Thick_Grass_Mobile_2.mtl

v 0.46392 -0.0669319 -0.68187
v 0.459683 0.315183 -0.670634
v -0.0793535 -0.0830682 -0.337971
v -0.0835903 0.299047 -0.326735
v 0.457279 0.531994 -0.664259
v -0.0859942 0.515858 -0.32036
v 0.752072 -0.065075 -0.403677
v 0.73728 0.4141 -0.400858
v 0.227347 -0.0849251 0.217043
v 0.212555 0.39425 0.219862
v 0.728887 0.685982 -0.399259
v 0.204161 0.666132 0.221461
v 0.355941 -0.065129 -0.708745
v 0.350362 0.334391 -0.697497
v 0.0697443 -0.0848711 -0.149465
v 0.0641654 0.314649 -0.138217
v 0.347197 0.561078 -0.691115
v 0.061 0.541336 -0.131835
v 0.214673 -0.0824674 -0.493013
v 0.218527 0.429122 -0.477404
v -0.533423 -0.0675327 -0.797785
v -0.529569 0.444057 -0.782176
v 0.220714 0.719397 -0.468547
v -0.527382 0.734331 -0.773319
v -0.636466 -0.0621394 -0.811178
v -0.628824 0.462244 -0.796578
v 0.0756381 -0.0878606 -0.260132
v 0.0832807 0.436523 -0.245532
v -0.624487 0.759778 -0.788295
v 0.087617 0.734057 -0.237249
v -0.967344 -0.0711245 0.162675
v -0.954113 0.436594 0.15376
v -0.309527 -0.0788755 0.697621
v -0.296295 0.428843 0.688705
v -0.946605 0.724673 0.148702
v -0.288787 0.716922 0.683647
v -0.682535 -0.0763881 0.668838
v -0.677714 0.231692 0.660442
v -0.277583 -0.0736118 1.00324
v -0.272762 0.234468 0.994841
v -0.674978 0.406495 0.655678
v -0.270026 0.409272 0.990077
v -0.586932 -0.066124 0.576593
v -0.580262 0.402422 0.563466
v 0.136277 -0.083876 0.310423
v 0.142947 0.38467 0.297296
v -0.576478 0.668274 0.556018
v 0.146731 0.650522 0.289847
v 0.549928 -0.068031 0.816432
v 0.537378 0.429363 0.807113
v 0.5845 -0.081969 0.0259167
v 0.57195 0.415425 0.0165979
v 0.530258 0.711584 0.801826
v 0.56483 0.697646 0.0113105
v -0.412173 -0.0794767 0.639916
v -0.410475 0.351917 0.626466
v 0.204595 -0.0705232 1.00492
v 0.206293 0.360871 0.991466
v -0.409512 0.596689 0.618835
v 0.207256 0.605643 0.983835
v 0.417168 -0.0810158 0.298337
v 0.401412 0.436651 0.302386
v 0.592466 -0.0689842 -0.557781
v 0.576709 0.448683 -0.553732
v 0.392471 0.730374 0.304683
v 0.567769 0.742406 -0.551434
v 0.959764 -0.0660715 0.542761
v 0.949462 0.362995 0.534063
v 0.261848 -0.0839285 0.488598
v 0.251546 0.345138 0.4799
v 0.943616 0.606447 0.529128
v 0.2457 0.58859 0.474965
v 0.814733 -0.0788232 0.00974825
v 0.801029 0.416524 0.0171355
v 0.653814 -0.0711768 -0.801464
v 0.640111 0.42417 -0.794076
v 0.793254 0.697582 0.021327
v 0.632336 0.705228 -0.789885
v 0.434978 -0.0812613 -0.284453
v 0.430422 0.363086 -0.271253
v -0.036885 -0.0687388 -0.868869
v -0.0414415 0.375608 -0.855669
v 0.427836 0.615207 -0.263763
v -0.0440267 0.62773 -0.848179
v 0.492065 -0.0842679 -0.501941
v 0.484375 0.292572 -0.492935
v 0.801797 -0.0657321 -1.01306
v 0.794107 0.311108 -1.00406
v 0.480011 0.506391 -0.487826
v 0.789744 0.524927 -0.998949
v -0.156306 -0.0884885 -0.24018
v -0.14544 0.456843 -0.226928
v -0.749191 -0.0615115 -0.864139
v -0.738325 0.48382 -0.850887
v -0.139275 0.766263 -0.219408
v -0.732159 0.79324 -0.843368
v -0.262667 -0.0822308 -0.604007
v -0.244639 0.533829 -0.596947
v -1.03147 -0.0677692 0.097202
v -1.01345 0.54829 0.104262
v -0.23441 0.883379 -0.592941
v -1.00322 0.897841 0.108267
v -0.29184 -0.0916693 -0.043786
v -0.271971 0.542415 -0.0453154
v -1.33942 -0.0583307 0.169354
v -1.31955 0.575754 0.167824
v -0.260697 0.902194 -0.0461832
v -1.30828 0.935533 0.166957
v -0.672741 -0.0847367 0.117102
v -0.660864 0.319172 0.112624
v -1.16235 -0.0652633 0.57491
v -1.15047 0.338646 0.570432
v -0.654125 0.548349 0.110082
v -1.14374 0.567823 0.56789
v 0.0259676 -0.0784067 0.887531
v 0.0169797 0.482156 0.87238
v 0.877045 -0.0715932 0.634761
v 0.868057 0.48897 0.61961
v 0.01188 0.800218 0.863783
v 0.862957 0.807032 0.611013
v 0.135737 -0.0909301 0.26895
v 0.125903 0.549375 0.251394
v 0.653883 -0.0590699 1.14073
v 0.644049 0.581235 1.12318
v 0.120323 0.912682 0.241432
v 0.638469 0.944543 1.11321
v 0.428609 -0.0799364 0.646739
v 0.410652 0.519539 0.641039
v 1.02257 -0.0700636 -0.186124
v 1.00461 0.529412 -0.191824
v 0.400463 0.85968 0.637805
v 0.994425 0.869553 -0.195058
v 0.246425 -0.0852714 0.363149
v 0.231002 0.427901 0.358436
v 1.03246 -0.0647286 0.0275852
v 1.01704 0.448444 0.0228727
v 0.222251 0.719073 0.355762
v 1.00828 0.739616 0.0201988
v 0.370529 -0.0812885 0.35982
v 0.355153 0.408717 0.358979
v 0.807163 -0.0687115 -0.295425
v 0.791786 0.421294 -0.296266
v 0.346428 0.686744 0.358502
v 0.783062 0.699321 -0.296743
v -0.275965 -0.0823354 -0.187443
v -0.27416 0.319411 -0.174947
v 0.144929 -0.0676647 -0.719899
v 0.146734 0.334082 -0.707403
v -0.273136 0.547361 -0.167857
v 0.147758 0.562032 -0.700313
v 0.046252 -0.0870316 -0.00983531
v 0.0347224 0.36129 -0.00173763
v 0.651549 -0.0629684 -0.480256
v 0.64002 0.385353 -0.472158
v 0.0281805 0.615666 0.00285699
v 0.633478 0.63973 -0.467564
v -0.231779 -0.0839895 0.159733
v -0.22146 0.377425 0.16992
v -0.250424 -0.0660105 -0.635739
v -0.240105 0.395404 -0.625552
v -0.215605 0.639231 0.1757
v -0.23425 0.65721 -0.619772
v -0.169065 -0.0862054 0.00894043
v -0.159818 0.402604 0.0212069
v -0.374107 -0.0637946 -0.72953
v -0.364861 0.425015 -0.717264
v -0.154571 0.679953 0.0281669
v -0.359614 0.702364 -0.710304
v 0.0715726 -0.0880217 0.180546
v 0.089268 0.477652 0.178849
v -0.788982 -0.0619783 -0.111728
v -0.771286 0.503695 -0.113425
v 0.0993083 0.798614 0.177885
v -0.761246 0.824657 -0.114389
v -0.402445 -0.078349 0.199287
v -0.39137 0.280063 0.201338
v -0.513982 -0.071651 -0.368972
v -0.502907 0.286761 -0.366922
v -0.385086 0.483426 0.202501
v -0.496623 0.490124 -0.365758
v -0.0118809 -0.0812371 0.431388
v 0.00354871 0.466712 0.423742
v -0.706106 -0.0687629 -0.0756075
v -0.690676 0.479186 -0.0832534
v 0.0123034 0.777617 0.419404
v -0.681921 0.790092 -0.0875916
v 0.441264 -0.0778646 0.138042
v 0.434697 0.270982 0.129264
v 0.116988 -0.0721353 0.608272
v 0.110422 0.276711 0.599494
v 0.430972 0.468917 0.124283
v 0.106696 0.474646 0.594513
v 0.27551 -0.0832923 0.0443328
v 0.269815 0.328838 0.0327008
v 0.098106 -0.0667076 0.718776
v 0.0924106 0.345423 0.707144
v 0.266583 0.56268 0.0261008
v 0.089179 0.579265 0.700544
v -0.00891283 -0.0887517 0.00549491
v -0.0237759 0.43848 -0.00182672
v 0.78402 -0.0612483 0.376306
v 0.769157 0.465983 0.368984
v -0.0322092 0.73763 -0.005981
v 0.760723 0.765134 0.36483
v -0.0387399 -0.088647 -0.074973
v -0.0550984 0.43974 -0.0778229
v 0.793817 -0.061353 0.206508
v 0.777458 0.467034 0.203658
v -0.0643802 0.739545 -0.0794398
v 0.768177 0.766839 0.202041
v 0.479136 -0.0763656 -0.132162
v 0.470035 0.220333 -0.134191
v 0.462419 -0.0736344 0.342114
v 0.453319 0.223064 0.340085
v 0.464871 0.388679 -0.135342
v 0.448155 0.39141 0.338933
vn 0.56028 0.756151 -0.338115
vt 1 0
vn 0.56028 0.756151 -0.338115
vt 1 0.638
vn -0.576675 0.722381 0.381591
vt 0 0
vn -0.576675 0.722381 0.381591
vt 0 0.638
vn 0.56028 0.756151 -0.338115
vt 1 1
vn -0.576675 0.722381 0.381591
vt 0 1
vn 0.411536 0.755698 -0.50947
vt 1 0
vn 0.411535 0.755698 -0.50947
vt 1 0.638
vn -0.457179 0.722835 0.518168
vt 0 0
vn -0.457179 0.722835 0.518168
vt 0 0.638
vn 0.411535 0.755698 -0.50947
vt 1 1
vn -0.457179 0.722835 0.518168
vt 0 1
vn 0.296112 0.760404 -0.578016
vt 1 0
vn 0.296112 0.760404 -0.578016
vt 1 0.638
vn -0.316758 0.718128 0.619642
vt 0 0
vn -0.316758 0.718128 0.619642
vt 0 0.638
vn 0.296112 0.760404 -0.578016
vt 1 1
vn -0.316758 0.718128 0.619642
vt 0 1
vn 0.628737 0.726825 0.276433
vt 1 0
vn 0.628737 0.726825 0.276433
vt 1 0.638
vn -0.617598 0.751707 -0.231321
vt 0 0
vn -0.617598 0.751707 -0.231321
vt 0 0.638
vn 0.628737 0.726825 0.276433
vt 1 1
vn -0.617598 0.751707 -0.231321
vt 0 1
vn -0.521269 0.758484 -0.391129
vt 1 0
vn -0.521269 0.758484 -0.391129
vt 1 0.638
vn 0.542819 0.720049 0.432294
vt 0 0
vn 0.542819 0.720049 0.432294
vt 0 0.638
vn -0.521269 0.758484 -0.391129
vt 1 1
vn 0.542819 0.720049 0.432294
vt 0 1
vn -0.502864 0.745418 -0.437584
vt 1 0
vn -0.502864 0.745418 -0.437584
vt 1 0.638
vn 0.541397 0.733114 0.411623
vt 0 0
vn 0.541397 0.733114 0.411623
vt 0 0.638
vn -0.502864 0.745418 -0.437584
vt 1 1
vn 0.541397 0.733114 0.411623
vt 0 1
vn -0.50737 0.735708 -0.448675
vt 1 0
vn -0.50737 0.735708 -0.448674
vt 1 0.638
vn 0.530509 0.742824 0.408379
vt 0 0
vn 0.530509 0.742824 0.408379
vt 0 0.638
vn -0.50737 0.735708 -0.448674
vt 1 1
vn 0.530509 0.742824 0.408379
vt 0 1
vn -0.620904 0.754765 0.211678
vt 1 0
vn -0.620904 0.754765 0.211678
vt 1 0.638
vn 0.64195 0.723767 -0.253103
vt 0 0
vn 0.64195 0.723767 -0.253103
vt 0 0.638
vn -0.620904 0.754765 0.211678
vt 1 1
vn 0.64195 0.723767 -0.253103
vt 0 1
vn -0.0480531 0.751119 0.658415
vt 1 0
vn -0.048053 0.751119 0.658415
vt 1 0.638
vn 0.0107481 0.727413 -0.686116
vt 0 0
vn 0.0107482 0.727413 -0.686116
vt 0 0.638
vn -0.0480529 0.751119 0.658415
vt 1 1
vn 0.0107483 0.727413 -0.686116
vt 0 1
vn -0.576236 0.730859 -0.365783
vt 1 0
vn -0.576236 0.730859 -0.365783
vt 1 0.638
vn 0.582053 0.747674 0.319685
vt 0 0
vn 0.582053 0.747673 0.319685
vt 0 0.638
vn -0.576236 0.730859 -0.365783
vt 1 1
vn 0.582053 0.747674 0.319685
vt 0 1
vn -0.157493 0.730001 0.665052
vt 1 0
vn -0.157493 0.730001 0.665052
vt 1 0.638
vn 0.11249 0.748531 -0.653488
vt 0 0
vn 0.11249 0.748531 -0.653488
vt 0 0.638
vn -0.157493 0.730001 0.665052
vt 1 1
vn 0.11249 0.748531 -0.653488
vt 0 1
vn 0.653025 0.756429 0.0370711
vt 1 0
vn 0.653025 0.756429 0.0370711
vt 1 0.638
vn -0.688528 0.722104 -0.0670444
vt 0 0
vn -0.688528 0.722104 -0.0670445
vt 0 0.638
vn 0.653025 0.756429 0.0370711
vt 1 1
vn -0.688528 0.722104 -0.0670447
vt 0 1
vn 0.110496 0.733044 0.671146
vt 1 0
vn 0.110496 0.733044 0.671146
vt 1 0.638
vn -0.151398 0.745488 -0.649096
vt 0 0
vn -0.151398 0.745488 -0.649096
vt 0 0.638
vn 0.110496 0.733044 0.671146
vt 1 1
vn -0.151398 0.745488 -0.649096
vt 0 1
vn 0.41515 0.728048 0.545525
vt 1 0
vn 0.41515 0.728048 0.545525
vt 1 0.638
vn -0.430311 0.750485 -0.501603
vt 0 0
vn -0.430311 0.750485 -0.501603
vt 0 0.638
vn 0.41515 0.728048 0.545525
vt 1 1
vn -0.430311 0.750485 -0.501603
vt 0 1
vn -0.363709 0.718403 0.59297
vt 1 0
vn -0.363709 0.718403 0.59297
vt 1 0.638
vn 0.333536 0.760129 -0.557635
vt 0 0
vn 0.333536 0.760129 -0.557635
vt 0 0.638
vn -0.363709 0.718403 0.59297
vt 1 1
vn 0.333536 0.760129 -0.557635
vt 0 1
vn 0.478091 0.718183 0.505611
vt 1 0
vn 0.478091 0.718183 0.505611
vt 1 0.638
vn -0.448629 0.76035 -0.469681
vt 0 0
vn -0.448629 0.76035 -0.469681
vt 0 0.638
vn 0.478091 0.718183 0.505611
vt 1 1
vn -0.448629 0.76035 -0.469681
vt 0 1
vn 0.518835 0.729914 -0.445013
vt 1 0
vn 0.518835 0.729914 -0.445013
vt 1 0.638
vn -0.47557 0.748619 0.461956
vt 0 0
vn -0.47557 0.748619 0.461957
vt 0 0.638
vn 0.518835 0.729914 -0.445013
vt 1 1
vn -0.475569 0.748619 0.461957
vt 0 1
vn 0.682344 0.718288 -0.135898
vt 1 0
vn 0.682344 0.718288 -0.135898
vt 1 0.638
vn -0.636017 0.760244 0.132332
vt 0 0
vn -0.636017 0.760244 0.132332
vt 0 0.638
vn 0.682344 0.718288 -0.135898
vt 1 1
vn -0.636017 0.760244 0.132332
vt 0 1
vn 0.513121 0.719722 -0.467662
vt 1 0
vn 0.51312 0.719722 -0.467662
vt 1 0.638
vn -0.469644 0.75881 0.451267
vt 0 0
vn -0.469644 0.75881 0.451267
vt 0 0.638
vn 0.51312 0.719722 -0.467662
vt 1 1
vn -0.469644 0.75881 0.451267
vt 0 1
vn -0.656993 0.734101 0.171625
vt 1 0
vn -0.656993 0.734101 0.171625
vt 1 0.638
vn 0.633288 0.744431 -0.211587
vt 0 0
vn 0.633288 0.744431 -0.211587
vt 0 0.638
vn -0.656993 0.734101 0.171625
vt 1 1
vn 0.633288 0.744431 -0.211588
vt 0 1
vn -0.35504 0.718133 -0.598524
vt 1 0
vn -0.35504 0.718133 -0.598524
vt 1 0.638
vn 0.332333 0.760399 0.557986
vt 0 0
vn 0.332333 0.760399 0.557986
vt 0 0.638
vn -0.35504 0.718133 -0.598524
vt 1 1
vn 0.332333 0.760399 0.557986
vt 0 1
vn -0.412897 0.732771 0.54089
vt 1 0
vn -0.412898 0.732771 0.54089
vt 1 0.638
vn 0.368609 0.745761 -0.554949
vt 0 0
vn 0.368609 0.745761 -0.554949
vt 0 0.638
vn -0.412897 0.732771 0.54089
vt 1 1
vn 0.368609 0.745761 -0.554949
vt 0 1
vn -0.641008 0.723094 0.257378
vt 1 0
vn -0.641008 0.723094 0.257378
vt 1 0.638
vn 0.596571 0.755438 -0.270955
vt 0 0
vn 0.596571 0.755438 -0.270955
vt 0 0.638
vn -0.641008 0.723094 0.257378
vt 1 1
vn 0.596571 0.755438 -0.270955
vt 0 1
vn -0.396354 0.728518 0.558718
vt 1 0
vn -0.396355 0.728518 0.558717
vt 1 0.638
vn 0.349958 0.750015 -0.561255
vt 0 0
vn 0.349958 0.750015 -0.561255
vt 0 0.638
vn -0.396354 0.728518 0.558717
vt 1 1
vn 0.349958 0.750015 -0.561255
vt 0 1
vn -0.413936 0.724722 0.550849
vt 1 0
vn -0.413936 0.724722 0.550849
vt 1 0.638
vn 0.420577 0.75381 -0.504861
vt 0 0
vn 0.420577 0.75381 -0.504862
vt 0 0.638
vn -0.413936 0.724722 0.550849
vt 1 1
vn 0.420577 0.75381 -0.504861
vt 0 1
vn -0.55015 0.718151 0.426139
vt 1 0
vn -0.55015 0.718151 0.426139
vt 1 0.638
vn 0.512126 0.760381 -0.399433
vt 0 0
vn 0.512126 0.760381 -0.399433
vt 0 0.638
vn -0.55015 0.718151 0.426139
vt 1 1
vn 0.512126 0.760381 -0.399433
vt 0 1
vn 0.0322994 0.724063 0.688977
vt 1 0
vn 0.0322994 0.724063 0.688977
vt 1 0.638
vn 0.000767225 0.754469 -0.656335
vt 0 0
vn 0.000767237 0.754469 -0.656335
vt 0 0.638
vn 0.0322993 0.724063 0.688977
vt 1 1
vn 0.000767348 0.754469 -0.656335
vt 0 1
vn 0.193964 0.719595 0.666754
vt 1 0
vn 0.193964 0.719595 0.666754
vt 1 0.638
vn -0.165994 0.758938 -0.62965
vt 0 0
vn -0.165995 0.758938 -0.62965
vt 0 0.638
vn 0.193964 0.719595 0.666754
vt 1 1
vn -0.165995 0.758938 -0.62965
vt 0 1
vn 0.660126 0.719988 0.214128
vt 1 0
vn 0.660126 0.719988 0.214128
vt 1 0.638
vn -0.613873 0.758544 -0.218565
vt 0 0
vn -0.613873 0.758544 -0.218565
vt 0 0.638
vn 0.660126 0.719988 0.214128
vt 1 1
vn -0.613873 0.758544 -0.218565
vt 0 1
vn 0.152459 0.731483 0.664597
vt 1 0
vn 0.152459 0.731483 0.664597
vt 1 0.638
vn -0.106772 0.74705 -0.656137
vt 0 0
vn -0.106772 0.74705 -0.656138
vt 0 0.638
vn 0.152459 0.731483 0.664597
vt 1 1
vn -0.106772 0.74705 -0.656137
vt 0 1
vn 0.564264 0.729501 0.386567
vt 1 0
vn 0.564264 0.729501 0.386567
vt 1 0.638
vn -0.522631 0.749031 -0.407197
vt 0 0
vn -0.522631 0.749031 -0.407197
vt 0 0.638
vn 0.564265 0.729501 0.386567
vt 1 1
vn -0.522631 0.749031 -0.407197
vt 0 1
vn 0.36814 0.732516 -0.57262
vt 1 0
vn 0.36814 0.732516 -0.57262
vt 1 0.638
vn -0.39597 0.746016 0.535413
vt 0 0
vn -0.39597 0.746016 0.535413
vt 0 0.638
vn 0.36814 0.732516 -0.57262
vt 1 1
vn -0.39597 0.746016 0.535413
vt 0 1
vn 0.160939 0.723266 -0.671555
vt 1 0
vn 0.160939 0.723266 -0.671555
vt 1 0.638
vn -0.181371 0.755267 0.629823
vt 0 0
vn -0.181371 0.755267 0.629823
vt 0 0.638
vn 0.160939 0.723266 -0.671555
vt 1 1
vn -0.181371 0.755267 0.629823
vt 0 1
vn -0.630184 0.718131 -0.295222
vt 1 0
vn -0.630184 0.718131 -0.295222
vt 1 0.638
vn 0.588502 0.760402 0.27469
vt 0 0
vn 0.588502 0.760402 0.27469
vt 0 0.638
vn -0.630184 0.718131 -0.295222
vt 1 1
vn 0.588502 0.760402 0.27469
vt 0 1
vn -0.66014 0.718375 -0.219437
vt 1 0
vn -0.66014 0.718375 -0.219437
vt 1 0.638
vn 0.614365 0.760158 0.211462
vt 0 0
vn 0.614365 0.760157 0.211462
vt 0 0.638
vn -0.66014 0.718375 -0.219437
vt 1 1
vn 0.614365 0.760157 0.211462
vt 0 1
vn 0.00103025 0.735393 -0.67764
vt 1 0
vn 0.0010302 0.735393 -0.67764
vt 1 0.638
vn -0.0463813 0.743139 0.667527
vt 0 0
vn -0.0463814 0.743139 0.667527
vt 0 0.638
vn 0.00103015 0.735393 -0.67764
vt 1 1
vn -0.0463815 0.743139 0.667527
vt 0 1
g LeavesSG
usemtl ThickGrass_Blades_Mat
s 1

f 1/1/1 2/2/2 3/3/3 
f 4/4/4 3/3/3 2/2/2 
f 2/2/2 5/5/5 4/4/4 
f 6/6/6 4/4/4 5/5/5 
f 7/7/7 8/8/8 9/9/9 
f 10/10/10 9/9/9 8/8/8 
f 8/8/8 11/11/11 10/10/10 
f 12/12/12 10/10/10 11/11/11 
f 13/13/13 14/14/14 15/15/15 
f 16/16/16 15/15/15 14/14/14 
f 14/14/14 17/17/17 16/16/16 
f 18/18/18 16/16/16 17/17/17 
f 19/19/19 20/20/20 21/21/21 
f 22/22/22 21/21/21 20/20/20 
f 20/20/20 23/23/23 22/22/22 
f 24/24/24 22/22/22 23/23/23 
f 25/25/25 26/26/26 27/27/27 
f 28/28/28 27/27/27 26/26/26 
f 26/26/26 29/29/29 28/28/28 
f 30/30/30 28/28/28 29/29/29 
f 31/31/31 32/32/32 33/33/33 
f 34/34/34 33/33/33 32/32/32 
f 32/32/32 35/35/35 34/34/34 
f 36/36/36 34/34/34 35/35/35 
f 37/37/37 38/38/38 39/39/39 
f 40/40/40 39/39/39 38/38/38 
f 38/38/38 41/41/41 40/40/40 
f 42/42/42 40/40/40 41/41/41 
f 43/43/43 44/44/44 45/45/45 
f 46/46/46 45/45/45 44/44/44 
f 44/44/44 47/47/47 46/46/46 
f 48/48/48 46/46/46 47/47/47 
f 49/49/49 50/50/50 51/51/51 
f 52/52/52 51/51/51 50/50/50 
f 50/50/50 53/53/53 52/52/52 
f 54/54/54 52/52/52 53/53/53 
f 55/55/55 56/56/56 57/57/57 
f 58/58/58 57/57/57 56/56/56 
f 56/56/56 59/59/59 58/58/58 
f 60/60/60 58/58/58 59/59/59 
f 61/61/61 62/62/62 63/63/63 
f 64/64/64 63/63/63 62/62/62 
f 62/62/62 65/65/65 64/64/64 
f 66/66/66 64/64/64 65/65/65 
f 67/67/67 68/68/68 69/69/69 
f 70/70/70 69/69/69 68/68/68 
f 68/68/68 71/71/71 70/70/70 
f 72/72/72 70/70/70 71/71/71 
f 73/73/73 74/74/74 75/75/75 
f 76/76/76 75/75/75 74/74/74 
f 74/74/74 77/77/77 76/76/76 
f 78/78/78 76/76/76 77/77/77 
f 79/79/79 80/80/80 81/81/81 
f 82/82/82 81/81/81 80/80/80 
f 80/80/80 83/83/83 82/82/82 
f 84/84/84 82/82/82 83/83/83 
f 85/85/85 86/86/86 87/87/87 
f 88/88/88 87/87/87 86/86/86 
f 86/86/86 89/89/89 88/88/88 
f 90/90/90 88/88/88 89/89/89 
f 91/91/91 92/92/92 93/93/93 
f 94/94/94 93/93/93 92/92/92 
f 92/92/92 95/95/95 94/94/94 
f 96/96/96 94/94/94 95/95/95 
f 97/97/97 98/98/98 99/99/99 
f 100/100/100 99/99/99 98/98/98 
f 98/98/98 101/101/101 100/100/100 
f 102/102/102 100/100/100 101/101/101 
f 103/103/103 104/104/104 105/105/105 
f 106/106/106 105/105/105 104/104/104 
f 104/104/104 107/107/107 106/106/106 
f 108/108/108 106/106/106 107/107/107 
f 109/109/109 110/110/110 111/111/111 
f 112/112/112 111/111/111 110/110/110 
f 110/110/110 113/113/113 112/112/112 
f 114/114/114 112/112/112 113/113/113 
f 115/115/115 116/116/116 117/117/117 
f 118/118/118 117/117/117 116/116/116 
f 116/116/116 119/119/119 118/118/118 
f 120/120/120 118/118/118 119/119/119 
f 121/121/121 122/122/122 123/123/123 
f 124/124/124 123/123/123 122/122/122 
f 122/122/122 125/125/125 124/124/124 
f 126/126/126 124/124/124 125/125/125 
f 127/127/127 128/128/128 129/129/129 
f 130/130/130 129/129/129 128/128/128 
f 128/128/128 131/131/131 130/130/130 
f 132/132/132 130/130/130 131/131/131 
f 133/133/133 134/134/134 135/135/135 
f 136/136/136 135/135/135 134/134/134 
f 134/134/134 137/137/137 136/136/136 
f 138/138/138 136/136/136 137/137/137 
f 139/139/139 140/140/140 141/141/141 
f 142/142/142 141/141/141 140/140/140 
f 140/140/140 143/143/143 142/142/142 
f 144/144/144 142/142/142 143/143/143 
f 145/145/145 146/146/146 147/147/147 
f 148/148/148 147/147/147 146/146/146 
f 146/146/146 149/149/149 148/148/148 
f 150/150/150 148/148/148 149/149/149 
f 151/151/151 152/152/152 153/153/153 
f 154/154/154 153/153/153 152/152/152 
f 152/152/152 155/155/155 154/154/154 
f 156/156/156 154/154/154 155/155/155 
f 157/157/157 158/158/158 159/159/159 
f 160/160/160 159/159/159 158/158/158 
f 158/158/158 161/161/161 160/160/160 
f 162/162/162 160/160/160 161/161/161 
f 163/163/163 164/164/164 165/165/165 
f 166/166/166 165/165/165 164/164/164 
f 164/164/164 167/167/167 166/166/166 
f 168/168/168 166/166/166 167/167/167 
f 169/169/169 170/170/170 171/171/171 
f 172/172/172 171/171/171 170/170/170 
f 170/170/170 173/173/173 172/172/172 
f 174/174/174 172/172/172 173/173/173 
f 175/175/175 176/176/176 177/177/177 
f 178/178/178 177/177/177 176/176/176 
f 176/176/176 179/179/179 178/178/178 
f 180/180/180 178/178/178 179/179/179 
f 181/181/181 182/182/182 183/183/183 
f 184/184/184 183/183/183 182/182/182 
f 182/182/182 185/185/185 184/184/184 
f 186/186/186 184/184/184 185/185/185 
f 187/187/187 188/188/188 189/189/189 
f 190/190/190 189/189/189 188/188/188 
f 188/188/188 191/191/191 190/190/190 
f 192/192/192 190/190/190 191/191/191 
f 193/193/193 194/194/194 195/195/195 
f 196/196/196 195/195/195 194/194/194 
f 194/194/194 197/197/197 196/196/196 
f 198/198/198 196/196/196 197/197/197 
f 199/199/199 200/200/200 201/201/201 
f 202/202/202 201/201/201 200/200/200 
f 200/200/200 203/203/203 202/202/202 
f 204/204/204 202/202/202 203/203/203 
f 205/205/205 206/206/206 207/207/207 
f 208/208/208 207/207/207 206/206/206 
f 206/206/206 209/209/209 208/208/208 
f 210/210/210 208/208/208 209/209/209 
f 211/211/211 212/212/212 213/213/213 
f 214/214/214 213/213/213 212/212/212 
f 212/212/212 215/215/215 214/214/214 
f 216/216/216 214/214/214 215/215/215 



