# Wavefront Object Material File
# Generated using SpeedTree tools

newmtl Knot_3_Mat
map_Kd Broadleaf_00.png
map_d Broadleaf_00_Opacity.png
map_bump Broadleaf_00_Normal.png
bump Broadleaf_00_Normal.png -bm 1
Ns 128
illum 2


newmtl Main_Bark_Mat
map_Kd Broadleaf_00.png
map_d Broadleaf_00_Opacity.png
map_bump Broadleaf_00_Normal.png
bump Broadleaf_00_Normal.png -bm 1
Ns 128
illum 2


newmtl Oak_Live_Cluster_Desktop_spring_Mat
map_Kd Broadleaf_00.png
map_d Broadleaf_00_Opacity.png
map_bump Broadleaf_00_Normal.png
bump Broadleaf_00_Normal.png -bm 1
Ns 128
illum 2


newmtl Oak_Live_Desktop_Cluster_3_spring_Mat
map_Kd Broadleaf_00.png
map_d Broadleaf_00_Opacity.png
map_bump Broadleaf_00_Normal.png
bump Broadleaf_00_Normal.png -bm 1
Ns 128
illum 2


